@0fd244
03 08 f5
@0fd26e
11 00 ef
@0f8bbe
0e 01 f1
@0f8ce4
0e 01 f1
@0f8ce7
84 03 79
@0f8cea
0e 01 f1
@0f8ced
65 04 97
@0f8cf0
0a 00 f6
@0f8cf3
0a 00 f6
@0f8d05
fa 00 06
@0f8d08
fa 00 06
@0f8e10
00 00 00
@0f8e13
00 00 00
@0f8e16
00 00 00
@0f8e19
00 00 00
@0f8e1c
00 00 00
@0f8f3c
03 00 fd
@0f8f3f
05 00 fb
@0f99c8
0e 01 f1
@0f99cb
0e 01 f1
@0f99ce
0e 01 f1
@0f99d1
0e 01 f1
@0fd20b
b0 04 4c
@0fd226
33 42 8b
@0fd229
41 36 89
@0fd22c
00 00 00
@0fd22f
00 00 00
@0fe4da
84 03 79
@0fe762
3c 00 c4
@0fe765
00 00 00
@0fe774
d9 01 26
@0fe777
18 01 e7
@0fe77a
08 02 f6
@0fe77d
12 00 ee
@0fe780
54 01 ab
@0fe783
84 03 79
@0fe786
5e 01 a1
@0fe789
31 00 cf
@0fe78c
d0 02 2e
@0fe78f
58 1b 8d
@0fe792
bf 2f 12
@0fe795
4c 1d 97
@0fe798
75 24 67
@0fe79b
23 00 dd
@0fe79e
42 00 be
@0fe7a1
8e 03 6f
@0fe7a4
90 01 6f
@0fe7a7
30 00 d0
@0fe7aa
28 00 d8
@0fe7ad
1e 00 e2
@0fe7b0
19 00 e7
@0fe7c8
01 00 ff
q
