@0fd244
03 0f ee
@0fd26e
08 00 f8
@0f8bbe
d0 02 2e
@0f8ce4
d0 02 2e
@0f8ce7
60 09 97
@0f8cea
d0 02 2e
@0f8ced
b8 0b 3d
@0f8cf0
47 00 b9
@0f8cf3
47 00 b9
@0f8d02
00 00 00
@0f8d05
fa 00 06
@0f8d08
fa 00 06
@0f8e10
00 00 00
@0f8e13
00 00 00
@0f8e16
00 00 00
@0f8e19
00 00 00
@0f8e1c
00 00 00
@0f8f3c
03 00 fd
@0f8f3f
0a 00 f6
@0f99c8
d0 02 2e
@0f99cb
d0 02 2e
@0f99ce
d0 02 2e
@0f99d1
d0 02 2e
@0fd20b
b0 04 4c
@0fe4da
84 03 79
@0fe4c8
f7 00 09
@0fe4cb
04 00 fc
@0fe4ce
01 00 ff
@0fe7c8
04 00 fc
@0fe774
86 01 79
@0fe777
18 01 e7
@0fe77a
fe 01 01
@0fe77d
09 00 f7
@0fe780
52 01 ad
@0fe783
60 09 97
@0fe786
2c 01 d3
@0fe789
0e 00 f2
@0fe78c
a8 02 56
@0fe762
3c 00 c4
@0fe765
00 00 00
@0fe78f
58 1b 8d
@0fe792
bf 2f 12
@0fe795
4c 1d 97
@0fe798
75 24 67
@0fe79b
23 00 dd
@0fe79e
42 00 be
@0fe7a1
8e 03 6f
@0fe7a4
90 01 6f
@0fe7a7
15 00 eb
@0fe7aa
11 00 ef
@0fe7ad
0a 00 f6
@0fe7b0
09 00 f7
q
