@0fd244
01 14 eb
@0fd26e
01 00 ff
@0f8bbe
64 00 9c
@0f8ce4
64 00 9c
@0f8ce7
08 07 f1
@0f8cea
64 00 9c
@0f8ced
ca 08 2e
@0f8cf0
2f 00 d1
@0f8cf3
2f 00 d1
@0f8d02
00 00 00
@0f8d05
fa 00 06
@0f8d08
fa 00 06
@0f8e10
00 00 00
@0f8e13
00 00 00
@0f8e16
00 00 00
@0f8e19
00 00 00
@0f8e1c
00 00 00
@0f8f3c
03 00 fd
@0f8f3f
0a 00 f6
@0f99c8
1c 02 e2
@0f99cb
1c 02 e2
@0f99ce
1c 02 e2
@0f99d1
1c 02 e2
@0fd20b
b0 04 4c
@0fe4da
84 03 79
@0fe4c8
f7 00 09
@0fe4cb
04 00 fc
@0fe4ce
01 00 ff
@0fe7c8
04 00 fc
@0fe774
d9 01 26
@0fe777
18 01 e7
@0fe77a
08 02 f6
@0fe77d
12 00 ee
@0fe780
54 01 ab
@0fe783
08 07 f1
@0fe786
5e 01 a1
@0fe789
31 00 cf
@0fe78c
d0 02 2e
@0fe762
3c 00 c4
@0fe765
00 00 00
@0fe78f
58 1b 8d
@0fe792
bf 2f 12
@0fe795
4c 1d 97
@0fe798
75 24 67
@0fe79b
23 00 dd
@0fe79e
42 00 be
@0fe7a1
8e 03 6f
@0fe7a4
90 01 6f
@0fe7a7
30 00 d0
@0fe7aa
28 00 d8
@0fe7ad
1e 00 e2
@0fe7b0
19 00 e7
q
