@0fd244
ad 14 3f
@0fd26e
0b 00 f5
@0f8bbe
d0 02 2e
@0f8ce4
d0 02 2e
@0f8ce7
60 09 97
@0f8cea
d0 02 2e
@0f8ced
b8 0b 3d
@0f8cf0
3d 00 c3
@0f8cf3
3d 00 c3
@0f8d02
00 00 00
@0f8d05
fa 00 06
@0f8d08
fa 00 06
@0f8e10
00 00 00
@0f8e13
00 00 00
@0f8e16
00 00 00
@0f8e19
00 00 00
@0f8e1c
00 00 00
@0f8f3c
03 00 fd
@0f8f3f
0a 00 f6
@0f99c8
d0 02 2e
@0f99cb
d0 02 2e
@0f99ce
d0 02 2e
@0f99d1
d0 02 2e
@0fd20b
b0 04 4c
@0fe4da
84 03 79
@0fe4c8
f7 00 09
@0fe4cb
04 00 fc
@0fe4ce
01 00 ff
@0fe7c8
04 00 fc
@0fe774
dc 00 24
@0fe777
16 01 e9
@0fe77a
04 03 f9
@0fe77d
09 00 f7
@0fe780
54 01 ab
@0fe783
60 09 97
@0fe786
5e 01 a1
@0fe789
36 00 ca
@0fe78c
c2 01 3d
@0fe762
3c 00 c4
@0fe765
00 00 00
@0fe78f
58 1b 8d
@0fe792
bf 2f 12
@0fe795
4c 1d 97
@0fe798
75 24 67
@0fe79b
23 00 dd
@0fe79e
42 00 be
@0fe7a1
8e 03 6f
@0fe7a4
90 01 6f
@0fe7a7
34 00 cc
@0fe7aa
2d 00 d3
@0fe7ad
1e 00 e2
@0fe7b0
19 00 e7
q
