@0fd244
19 05 e2
@0fd26e
09 00 f7
@0f8bbe
38 04 c4
@0f8ce4
38 04 c4
@0f8ce7
10 0e e2
@0f8cea
38 04 c4
@0f8ced
94 11 5b
@0f8cf0
35 00 cb
@0f8cf3
35 00 cb
@0f8d05
fa 00 06
@0f8d08
fa 00 06
@0f8e10
00 00 00
@0f8e13
00 00 00
@0f8e16
00 00 00
@0f8e19
00 00 00
@0f8e1c
00 00 00
@0f8f3c
03 00 fd
@0f8f3f
05 00 fb
@0f99c8
38 04 c4
@0f99cb
38 04 c4
@0f99ce
38 04 c4
@0f99d1
38 04 c4
@0fd20b
b0 04 4c
@0fd226
33 46 87
@0fd229
41 36 89
@0fd22c
00 00 00
@0fd22f
00 00 00
@0fe4da
84 03 79
@0fe7c8
02 00 fe
@0fe774
94 02 6a
@0fe777
f3 00 0d
@0fe77a
01 02 fd
@0fe77d
07 00 f9
@0fe780
57 01 a8
@0fe783
10 0e e2
@0fe786
c8 00 38
@0fe789
07 00 f9
@0fe78c
a3 02 5b
@0fe762
3c 00 c4
@0fe765
00 00 00
@0fe78f
88 13 65
@0fe792
d6 1f 0b
@0fe795
4c 1d 97
@0fe798
75 24 67
@0fe79b
23 00 dd
@0fe79e
42 00 be
@0fe7a1
8e 03 6f
@0fe7a4
90 01 6f
@0fe7a7
15 00 eb
@0fe7aa
11 00 ef
@0fe7ad
0a 00 f6
@0fe7b0
09 00 f7
q
