@0fd244
0a 08 ee
@0fd26e
0c 00 f4
@0f8bbe
38 04 c4
@0f8ce4
38 04 c4
@0f8ce7
10 0e e2
@0f8cea
38 04 c4
@0f8ced
94 11 5b
@0f8cf0
56 00 aa
@0f8cf3
56 00 aa
@0f8d05
fa 00 06
@0f8d08
fa 00 06
@0f8e10
00 00 00
@0f8e13
00 00 00
@0f8e16
00 00 00
@0f8e19
00 00 00
@0f8e1c
00 00 00
@0f8f3c
03 00 fd
@0f8f3f
05 00 fb
@0f99c8
38 04 c4
@0f99cb
38 04 c4
@0f99ce
38 04 c4
@0f99d1
38 04 c4
@0fd20b
b0 04 4c
@0fd226
33 42 8b
@0fd229
41 36 89
@0fd22c
00 00 00
@0fd22f
00 00 00
@0fe4da
84 03 79
@0fe7c8
02 00 fe
@0fe774
d7 00 29
@0fe777
10 01 ef
@0fe77a
41 02 bd
@0fe77d
08 00 f8
@0fe780
53 01 ac
@0fe783
10 0e e2
@0fe786
90 01 6f
@0fe789
2d 00 d3
@0fe78c
58 02 a6
@0fe762
3c 00 c4
@0fe765
00 00 00
@0fe78f
58 1b 8d
@0fe792
bf 2f 12
@0fe795
4c 1d 97
@0fe798
75 24 67
@0fe79b
23 00 dd
@0fe79e
42 00 be
@0fe7a1
8e 03 6f
@0fe7a4
90 01 6f
@0fe7a7
34 00 cc
@0fe7aa
2d 00 d3
@0fe7ad
1e 00 e2
@0fe7b0
19 00 e7
q
